<?xml version="1.0" encoding="utf-8"?>
<!-- Generator: Adobe Illustrator 16.0.0, SVG Export Plug-In . SVG Version: 6.00 Build 0)  -->
<!DOCTYPE svg PUBLIC "-//W3C//DTD SVG 1.1//EN" "http://www.w3.org/Graphics/SVG/1.1/DTD/svg11.dtd">
<svg version="1.1" id="Layer_1" xmlns="http://www.w3.org/2000/svg" xmlns:xlink="http://www.w3.org/1999/xlink" x="0px" y="0px"
	 width="595.279px" height="595.275px" viewBox="0 123.308 595.279 595.275" enable-background="new 0 123.308 595.279 595.275"
	 xml:space="preserve">
<g>
	<path fill="none" stroke="#ffffff" stroke-width="40" stroke-miterlimit="10" d="M297.64,636.223L30.012,304.665l72.426-98.997
		h390.404l72.426,98.997L297.64,636.223z"/>
</g>
</svg>
